/Users/toutios/Dropbox/Programming/experiments/nsf_cs/data/lac01242016_19_27_51.avi,cs2_apa,730,2050
/Users/toutios/Dropbox/Programming/experiments/nsf_cs/data/lac01242016_19_27_51.avi,cs2_upu,4120,5620
/Users/toutios/Dropbox/Programming/experiments/nsf_cs/data/lac01242016_19_27_51.avi,cs2_ipi,6560,8170
/Users/toutios/Dropbox/Programming/experiments/nsf_cs/data/lac01242016_19_27_51.avi,cs2_ata,8490,9950
/Users/toutios/Dropbox/Programming/experiments/nsf_cs/data/lac01242016_19_27_51.avi,cs2_utu,10130,11560
/Users/toutios/Dropbox/Programming/experiments/nsf_cs/data/lac01242016_19_27_51.avi,cs2_iti,11720,13160
/Users/toutios/Dropbox/Programming/experiments/nsf_cs/data/lac01242016_19_27_51.avi,cs2_aka,13560,14970
/Users/toutios/Dropbox/Programming/experiments/nsf_cs/data/lac01242016_19_27_51.avi,cs2_uku,14990,16290
/Users/toutios/Dropbox/Programming/experiments/nsf_cs/data/lac01242016_19_27_51.avi,cs2_iki,16390,18380
/Users/toutios/Dropbox/Programming/experiments/nsf_cs/data/lac01242016_19_27_51.avi,cs2_aba,18500,19880
/Users/toutios/Dropbox/Programming/experiments/nsf_cs/data/lac01242016_19_27_51.avi,cs2_ubu,19940,21220
/Users/toutios/Dropbox/Programming/experiments/nsf_cs/data/lac01242016_19_27_51.avi,cs2_ibi,21460,23050
/Users/toutios/Dropbox/Programming/experiments/nsf_cs/data/lac01242016_19_27_51.avi,cs2_ada,23090,24809
/Users/toutios/Dropbox/Programming/experiments/nsf_cs/data/lac01242016_19_27_51.avi,cs2_udu,24790,26300
/Users/toutios/Dropbox/Programming/experiments/nsf_cs/data/lac01242016_19_27_51.avi,cs2_idi,26290,28000
/Users/toutios/Dropbox/Programming/experiments/nsf_cs/data/lac01242016_19_27_51.avi,cs2_aga,28320,30190
/Users/toutios/Dropbox/Programming/experiments/nsf_cs/data/lac01242016_19_27_51.avi,cs2_ugu,30160,31470
/Users/toutios/Dropbox/Programming/experiments/nsf_cs/data/lac01242016_19_27_51.avi,cs2_igi,31530,33070